<?xml version="1.0" standalone="no"?>
<!DOCTYPE svg PUBLIC "-//W3C//DTD SVG 20010904//EN"
 "http://www.w3.org/TR/2001/REC-SVG-20010904/DTD/svg10.dtd">
<svg version="1.0" xmlns="http://www.w3.org/2000/svg"
 width="340.000000pt" height="340.000000pt" viewBox="0 0 340.000000 340.000000"
 preserveAspectRatio="xMidYMid meet">
<metadata>
Created by potrace 1.11, written by Peter Selinger 2001-2013
</metadata>
<g transform="translate(0.000000,340.000000) scale(0.100000,-0.100000)"
fill="#000000" stroke="none">
<path d="M1602 2623 l-101 -128 102 -97 102 -97 79 77 c98 95 116 113 116 121
0 5 -167 220 -190 244 -4 4 -53 -50 -108 -120z"/>
<path d="M1343 2295 c-46 -58 -83 -109 -83 -114 0 -9 166 -131 178 -131 4 0
46 38 95 84 55 52 85 88 82 97 -4 8 -30 33 -58 57 -29 23 -69 58 -91 77 -21
19 -39 35 -40 35 0 0 -38 -48 -83 -105z"/>
<path d="M1920 2348 c-30 -27 -72 -64 -92 -81 -21 -17 -38 -36 -38 -43 0 -11
167 -174 179 -174 9 0 176 120 179 129 3 8 -150 205 -166 215 -4 2 -32 -19
-62 -46z"/>
<path d="M1630 2092 c-36 -31 -76 -67 -89 -78 l-24 -22 88 -63 c48 -35 93 -63
101 -63 7 1 51 30 99 64 70 50 84 65 73 74 -107 96 -167 146 -174 146 -5 0
-38 -26 -74 -58z"/>
<path d="M1096 1981 c-47 -60 -86 -112 -86 -115 0 -3 36 -24 79 -45 l79 -40
96 92 c53 51 96 95 96 98 0 3 -30 26 -67 51 -119 79 -99 83 -197 -41z"/>
<path d="M2127 2031 l-87 -57 100 -97 100 -97 80 41 c44 23 80 44 80 46 0 8
-173 223 -179 223 -3 -1 -45 -27 -94 -59z"/>
<path d="M1381 1872 c-29 -26 -73 -65 -97 -87 l-44 -40 87 -46 88 -47 102 72
c56 39 102 74 103 78 0 8 -165 118 -177 118 -4 -1 -32 -22 -62 -48z"/>
<path d="M1867 1861 l-88 -58 107 -75 107 -75 88 46 89 46 -57 50 c-31 27 -75
67 -97 87 -23 21 -45 37 -51 37 -5 0 -50 -26 -98 -58z"/>
<path d="M837 1652 c-87 -109 -149 -187 -419 -531 -128 -163 -114 -145 -162
-203 -21 -27 -36 -48 -33 -48 6 0 45 37 389 371 139 136 301 293 361 349 59
57 104 107 100 111 -5 4 -38 21 -76 38 l-67 30 -93 -117z"/>
<path d="M2412 1740 c-35 -15 -67 -31 -73 -37 -6 -6 65 -82 208 -220 120 -116
268 -259 328 -318 61 -58 153 -149 207 -201 53 -52 99 -94 102 -94 3 0 -52 73
-122 163 -71 89 -224 284 -341 432 -117 149 -220 277 -229 286 -16 15 -22 14
-80 -11z"/>
<path d="M1595 1684 c-55 -36 -101 -67 -102 -68 -4 -3 202 -106 213 -106 12 0
183 87 198 101 8 7 -184 139 -201 139 -5 0 -53 -30 -108 -66z"/>
<path d="M1138 1662 c-2 -4 -23 -25 -48 -47 -25 -22 -79 -70 -120 -106 -90
-80 -273 -241 -315 -278 -64 -56 -371 -326 -381 -336 -6 -5 -34 -30 -63 -55
-29 -25 -64 -60 -78 -79 -25 -32 -25 -33 -3 -21 13 7 71 47 129 90 58 42 270
193 471 335 201 142 388 275 415 295 28 20 78 56 113 80 34 24 62 44 62 45 0
3 -99 51 -147 71 -17 8 -33 10 -35 6z"/>
<path d="M2171 1628 c-46 -22 -79 -43 -75 -48 5 -4 160 -115 344 -246 184
-131 451 -321 594 -422 142 -101 259 -182 261 -180 6 6 -40 53 -136 138 -188
168 -253 226 -293 260 -22 19 -83 73 -136 120 -53 47 -129 114 -170 150 -137
120 -255 225 -260 230 -39 39 -41 39 -129 -2z"/>
<path d="M1310 1499 c-41 -27 -124 -82 -185 -121 -183 -119 -649 -424 -831
-543 -94 -62 -180 -118 -191 -123 -11 -6 -28 -23 -37 -37 -15 -23 -2 -18 106
38 167 87 630 326 973 502 314 162 440 227 448 235 8 7 -148 87 -187 95 -14 3
-47 -13 -96 -46z"/>
<path d="M1903 1504 c-51 -24 -93 -47 -93 -52 0 -4 31 -22 68 -39 37 -18 132
-67 212 -109 80 -41 273 -141 430 -221 157 -80 290 -149 295 -153 6 -4 131
-69 279 -145 410 -210 369 -176 -379 310 -115 75 -320 208 -454 296 -134 87
-249 159 -255 158 -6 0 -53 -21 -103 -45z"/>
<path d="M1608 1367 c-47 -23 -99 -48 -115 -55 -133 -61 -551 -255 -642 -298
-62 -30 -115 -54 -117 -54 -1 0 -63 -29 -137 -64 -74 -35 -145 -67 -157 -71
-12 -4 -20 -9 -17 -11 2 -2 24 3 48 11 58 21 316 94 354 101 16 3 46 9 65 14
19 5 49 11 65 13 17 3 68 12 115 20 47 9 114 18 150 22 36 4 72 9 81 10 32 6
277 18 384 19 107 0 359 -11 420 -19 17 -2 55 -6 85 -10 72 -8 267 -41 355
-61 39 -9 79 -18 90 -20 16 -3 216 -63 330 -98 24 -8 -44 27 -170 85 -49 23
-137 64 -195 92 -58 27 -197 92 -310 144 -113 52 -239 111 -280 130 -41 20
-102 48 -135 63 -33 15 -86 39 -117 54 -31 14 -58 26 -60 25 -2 0 -42 -19 -90
-42z"/>
</g>
</svg>
