<?xml version="1.0" encoding="utf-8"?>
<!-- Generator: Adobe Illustrator 19.0.0, SVG Export Plug-In . SVG Version: 6.00 Build 0)  -->
<svg version="1.1" id="Layer_1" xmlns="http://www.w3.org/2000/svg" xmlns:xlink="http://www.w3.org/1999/xlink" x="0px" y="0px"
	 viewBox="0 0 337 216" style="enable-background:new 0 0 337 216;" xml:space="preserve">
<style type="text/css">
	.st0{fill-rule:evenodd;clip-rule:evenodd;fill:#0966B1;}
	.st1{fill-rule:evenodd;clip-rule:evenodd;fill:#113052;}
</style>
<g>
	<polygon class="st0" points="219,100.2 234.2,92.3 217.4,71.1 200.4,82.2 	"/>
	<polygon class="st0" points="143.7,87 124.7,103.7 141.1,112.2 160.9,98.2 	"/>
	<polygon class="st0" points="160.8,58.5 142.3,42.1 126,62.8 143.5,75.2 	"/>
	<polygon class="st0" points="187.2,32.8 168.4,9 149.6,32.9 168.4,51.1 	"/>
	<polygon class="st0" points="168.4,103.1 148.5,116 168.4,126.3 188.2,116 	"/>
	<polygon class="st0" points="185.8,80.5 168.4,65.1 151,80.5 168.4,92.9 	"/>
	<polygon class="st0" points="195.6,112.2 212.1,103.7 193.1,87 175.9,98.2 	"/>
	<polygon class="st0" points="136.3,82.2 119.4,71.2 102.7,92.4 117.8,100.2 	"/>
	<polygon class="st0" points="193.2,75.2 210.8,62.7 194.5,42.1 175.9,58.5 	"/>
	<polygon class="st1" points="15.4,202.9 12.3,206.8 158.9,131.2 139.3,122 	"/>
	<polygon class="st1" points="197.4,122 177.8,131.2 324.7,207 321.7,203.1 	"/>
	<polygon class="st1" points="309.9,188.2 241.5,101.6 227.3,108.2 	"/>
	<polygon class="st1" points="319.5,200.3 314.9,194.6 220.6,111.3 204.7,118.7 	"/>
	<polygon class="st1" points="95.4,101.6 27.5,187.6 109.5,108.2 	"/>
	<path class="st1" d="M168.4,135.6l-124,57.6c37-13.8,79.2-21.6,124-21.6c44.8,0,87,7.8,124,21.7L168.4,135.6z"/>
	<polygon class="st1" points="116.1,111.3 22.3,194.1 17.6,200.1 132.1,118.7 	"/>
</g>
</svg>
